<?xml version="1.0" encoding="UTF-8" standalone="no"?>
<!-- Created with Inkscape (http://www.inkscape.org/) -->

<svg
   xmlns:dc="http://purl.org/dc/elements/1.1/"
   xmlns:cc="http://creativecommons.org/ns#"
   xmlns:rdf="http://www.w3.org/1999/02/22-rdf-syntax-ns#"
   xmlns:svg="http://www.w3.org/2000/svg"
   xmlns="http://www.w3.org/2000/svg"
   xmlns:xlink="http://www.w3.org/1999/xlink"
   xmlns:sodipodi="http://sodipodi.sourceforge.net/DTD/sodipodi-0.dtd"
   xmlns:inkscape="http://www.inkscape.org/namespaces/inkscape"
   height="50.000000px"
   id="svg9493"
   inkscape:export-filename="/datas/Projs/Cliparts Stocker/led/led_circle_grey.png"
   inkscape:export-xdpi="90.000000"
   inkscape:export-ydpi="90.000000"
   inkscape:version="0.48.3.1 r9886"
   sodipodi:docname="circle_grey.svg"
   sodipodi:version="0.32"
   width="50.000000px"
   version="1.1">
  <metadata
     id="metadata3">
    <rdf:RDF>
      <cc:Work
         rdf:about="">
        <dc:title>LED Circle (Grey)</dc:title>
        <dc:description>jean.victor.balin@gmail.com</dc:description>
        <dc:subject>
          <rdf:Bag>
            <rdf:li>led</rdf:li>
            <rdf:li>shape</rdf:li>
          </rdf:Bag>
        </dc:subject>
        <dc:publisher>
          <cc:Agent
             rdf:about="http://www.openclipart.org/">
            <dc:title>Open Clip Art Library</dc:title>
          </cc:Agent>
        </dc:publisher>
        <dc:creator>
          <cc:Agent>
            <dc:title>Jean-Victor Balin</dc:title>
          </cc:Agent>
        </dc:creator>
        <dc:rights>
          <cc:Agent>
            <dc:title>Jean-Victor Balin</dc:title>
          </cc:Agent>
        </dc:rights>
        <dc:date>2005-08-21</dc:date>
        <dc:format>image/svg+xml</dc:format>
        <dc:type
           rdf:resource="http://purl.org/dc/dcmitype/StillImage" />
        <cc:license
           rdf:resource="http://web.resource.org/cc/PublicDomain" />
        <dc:language>en</dc:language>
      </cc:Work>
      <cc:License
         rdf:about="http://web.resource.org/cc/PublicDomain">
        <cc:permits
           rdf:resource="http://web.resource.org/cc/Reproduction" />
        <cc:permits
           rdf:resource="http://web.resource.org/cc/Distribution" />
        <cc:permits
           rdf:resource="http://web.resource.org/cc/DerivativeWorks" />
      </cc:License>
    </rdf:RDF>
  </metadata>
  <defs
     id="defs9495">
    <linearGradient
       gradientUnits="userSpaceOnUse"
       id="linearGradient9413"
       inkscape:collect="always"
       x1="23.402565"
       x2="23.389874"
       xlink:href="#linearGradient6506"
       y1="44.066776"
       y2="42.883698" />
    <linearGradient
       id="linearGradient9345">
      <stop
         id="stop9347"
         offset="0.0000000"
         style="stop-color:#5a5a5a;stop-opacity:1.0000000;" />
      <stop
         id="stop9349"
         offset="1.0000000"
         style="stop-color:#a9a9a9;stop-opacity:1.0000000;" />
    </linearGradient>
    <linearGradient
       gradientUnits="userSpaceOnUse"
       id="linearGradient9411"
       inkscape:collect="always"
       x1="23.213980"
       x2="23.201290"
       xlink:href="#linearGradient9345"
       y1="42.754631"
       y2="43.892632" />
    <linearGradient
       gradientUnits="userSpaceOnUse"
       id="linearGradient9409"
       inkscape:collect="always"
       x1="23.349695"
       x2="23.440580"
       xlink:href="#linearGradient5756"
       y1="42.767944"
       y2="43.710873" />
    <linearGradient
       gradientUnits="userSpaceOnUse"
       id="linearGradient9407"
       inkscape:collect="always"
       x1="23.193102"
       x2="23.200001"
       xlink:href="#linearGradient5742"
       y1="42.429230"
       y2="44.000000" />
    <linearGradient
       id="linearGradient6506">
      <stop
         id="stop6508"
         offset="0.0000000"
         style="stop-color:#ffffff;stop-opacity:0.0000000;" />
      <stop
         id="stop6510"
         offset="1.0000000"
         style="stop-color:#ffffff;stop-opacity:0.87450981;" />
    </linearGradient>
    <linearGradient
       gradientUnits="userSpaceOnUse"
       id="linearGradient7498"
       inkscape:collect="always"
       x1="23.402565"
       x2="23.389874"
       xlink:href="#linearGradient6506"
       y1="44.066776"
       y2="42.883698" />
    <linearGradient
       id="linearGradient7464">
      <stop
         id="stop7466"
         offset="0.0000000"
         style="stop-color:#00039a;stop-opacity:1.0000000;" />
      <stop
         id="stop7468"
         offset="1.0000000"
         style="stop-color:#afa5ff;stop-opacity:1.0000000;" />
    </linearGradient>
    <linearGradient
       gradientUnits="userSpaceOnUse"
       id="linearGradient7496"
       inkscape:collect="always"
       x1="23.213980"
       x2="23.201290"
       xlink:href="#linearGradient7464"
       y1="42.754631"
       y2="43.892632" />
    <linearGradient
       id="linearGradient5756">
      <stop
         id="stop5758"
         offset="0.0000000"
         style="stop-color:#828282;stop-opacity:1.0000000;" />
      <stop
         id="stop5760"
         offset="1.0000000"
         style="stop-color:#929292;stop-opacity:0.35294119;" />
    </linearGradient>
    <linearGradient
       gradientUnits="userSpaceOnUse"
       id="linearGradient9321"
       inkscape:collect="always"
       x1="22.935030"
       x2="23.662106"
       xlink:href="#linearGradient5756"
       y1="42.699776"
       y2="43.892632" />
    <linearGradient
       id="linearGradient5742">
      <stop
         id="stop5744"
         offset="0.0000000"
         style="stop-color:#adadad;stop-opacity:1.0000000;" />
      <stop
         id="stop5746"
         offset="1.0000000"
         style="stop-color:#f0f0f0;stop-opacity:1.0000000;" />
    </linearGradient>
    <linearGradient
       gradientUnits="userSpaceOnUse"
       id="linearGradient7492"
       inkscape:collect="always"
       x1="23.193102"
       x2="23.200001"
       xlink:href="#linearGradient5742"
       y1="42.429230"
       y2="44.000000" />
    <linearGradient
       gradientUnits="userSpaceOnUse"
       id="linearGradient9527"
       inkscape:collect="always"
       x1="23.193102"
       x2="23.200001"
       xlink:href="#linearGradient5742"
       y1="42.429230"
       y2="44.000000" />
    <linearGradient
       gradientUnits="userSpaceOnUse"
       id="linearGradient9529"
       inkscape:collect="always"
       x1="22.935030"
       x2="23.662106"
       xlink:href="#linearGradient5756"
       y1="42.699776"
       y2="43.892632" />
    <linearGradient
       gradientUnits="userSpaceOnUse"
       id="linearGradient9531"
       inkscape:collect="always"
       x1="23.213980"
       x2="23.201290"
       xlink:href="#linearGradient7464"
       y1="42.754631"
       y2="43.892632" />
    <linearGradient
       gradientUnits="userSpaceOnUse"
       id="linearGradient9533"
       inkscape:collect="always"
       x1="23.402565"
       x2="23.389874"
       xlink:href="#linearGradient6506"
       y1="44.066776"
       y2="42.883698" />
  </defs>
  <sodipodi:namedview
     bordercolor="#666666"
     borderopacity="1.0"
     id="base"
     inkscape:current-layer="layer1"
     inkscape:cx="3.6259542"
     inkscape:cy="25"
     inkscape:document-units="px"
     inkscape:pageopacity="0.0"
     inkscape:pageshadow="2"
     inkscape:window-height="693"
     inkscape:window-width="1024"
     inkscape:window-x="0"
     inkscape:window-y="25"
     inkscape:zoom="10.48"
     pagecolor="#ffffff"
     showgrid="false"
     inkscape:window-maximized="0" />
  <g
     id="layer1"
     inkscape:groupmode="layer"
     inkscape:label="Calque 1">
    <g
       id="g9435"
       style="overflow:visible"
       transform="matrix(21.875,0,0,21.875,-535.01623,-920)">
      <path
         d="m 24.000001,43.200001 c 0,0.4416 -0.3584,0.8 -0.8,0.8 -0.4416,0 -0.8,-0.3584 -0.8,-0.8 0,-0.4416 0.3584,-0.8 0.8,-0.8 0.4416,0 0.8,0.3584 0.8,0.8 z"
         id="path9325"
         style="fill:url(#linearGradient9407);fill-opacity:1;stroke:none;overflow:visible"
         transform="translate(2.400742,-1e-6)"
         inkscape:connector-curvature="0" />
      <path
         d="m 23.906358,43.296204 c 0,0.329229 -0.2672,0.596429 -0.596429,0.596429 -0.329229,0 -0.596429,-0.2672 -0.596429,-0.596429 0,-0.329229 0.2672,-0.59643 0.596429,-0.59643 0.329229,0 0.596429,0.267201 0.596429,0.59643 z"
         id="path9327"
         style="fill:url(#linearGradient9409);fill-opacity:1;stroke:none;overflow:visible"
         transform="matrix(1.082474,0,0,1.082474,0.368351,-3.667015)"
         inkscape:connector-curvature="0" />
      <path
         d="m 23.906358,43.296204 c 0,0.329229 -0.2672,0.596429 -0.596429,0.596429 -0.329229,0 -0.596429,-0.2672 -0.596429,-0.596429 0,-0.329229 0.2672,-0.59643 0.596429,-0.59643 0.329229,0 0.596429,0.267201 0.596429,0.59643 z"
         id="path9329"
         style="fill:url(#linearGradient9411);fill-opacity:1;stroke:none;overflow:visible"
         transform="matrix(0.969072,0,0,0.969072,3.011744,1.242861)"
         inkscape:connector-curvature="0" />
      <path
         d="m 23.906358,43.296204 c 0,0.329229 -0.2672,0.596429 -0.596429,0.596429 -0.329229,0 -0.596429,-0.2672 -0.596429,-0.596429 0,-0.329229 0.2672,-0.59643 0.596429,-0.59643 0.329229,0 0.596429,0.267201 0.596429,0.59643 z"
         id="path9331"
         style="fill:url(#linearGradient9413);fill-opacity:1;stroke:none;overflow:visible"
         transform="matrix(0.773196,0,0,0.597938,7.576856,17.11875)"
         inkscape:connector-curvature="0" />
    </g>
  </g>
</svg>
