<?xml version="1.0" encoding="UTF-8" standalone="no"?>
<!-- Created with Inkscape (http://www.inkscape.org/) -->

<svg
   xmlns:dc="http://purl.org/dc/elements/1.1/"
   xmlns:cc="http://creativecommons.org/ns#"
   xmlns:rdf="http://www.w3.org/1999/02/22-rdf-syntax-ns#"
   xmlns:svg="http://www.w3.org/2000/svg"
   xmlns="http://www.w3.org/2000/svg"
   xmlns:xlink="http://www.w3.org/1999/xlink"
   xmlns:sodipodi="http://sodipodi.sourceforge.net/DTD/sodipodi-0.dtd"
   xmlns:inkscape="http://www.inkscape.org/namespaces/inkscape"
   height="50.000000px"
   id="svg9493"
   inkscape:export-filename="/datas/Projs/Cliparts Stocker/led/led_square_green.png"
   inkscape:export-xdpi="90.000000"
   inkscape:export-ydpi="90.000000"
   inkscape:version="0.48.3.1 r9886"
   sodipodi:docname="square_green.svg"
   sodipodi:version="0.32"
   width="50.000000px"
   version="1.1">
  <metadata
     id="metadata3">
    <rdf:RDF>
      <cc:Work
         rdf:about="">
        <dc:title>LED Square (Green)</dc:title>
        <dc:description>jean.victor.balin@gmail.com</dc:description>
        <dc:subject>
          <rdf:Bag>
            <rdf:li>led</rdf:li>
            <rdf:li>shape</rdf:li>
          </rdf:Bag>
        </dc:subject>
        <dc:publisher>
          <cc:Agent
             rdf:about="http://www.openclipart.org/">
            <dc:title>Open Clip Art Library</dc:title>
          </cc:Agent>
        </dc:publisher>
        <dc:creator>
          <cc:Agent>
            <dc:title>Jean-Victor Balin</dc:title>
          </cc:Agent>
        </dc:creator>
        <dc:rights>
          <cc:Agent>
            <dc:title>Jean-Victor Balin</dc:title>
          </cc:Agent>
        </dc:rights>
        <dc:date>2005-08-21</dc:date>
        <dc:format>image/svg+xml</dc:format>
        <dc:type
           rdf:resource="http://purl.org/dc/dcmitype/StillImage" />
        <cc:license
           rdf:resource="http://web.resource.org/cc/PublicDomain" />
        <dc:language>en</dc:language>
      </cc:Work>
      <cc:License
         rdf:about="http://web.resource.org/cc/PublicDomain">
        <cc:permits
           rdf:resource="http://web.resource.org/cc/Reproduction" />
        <cc:permits
           rdf:resource="http://web.resource.org/cc/Distribution" />
        <cc:permits
           rdf:resource="http://web.resource.org/cc/DerivativeWorks" />
      </cc:License>
    </rdf:RDF>
  </metadata>
  <defs
     id="defs9495">
    <linearGradient
       gradientTransform="matrix(0.388435,0.000000,0.000000,0.618097,5.206900,5.026330)"
       gradientUnits="userSpaceOnUse"
       id="linearGradient31657"
       inkscape:collect="always"
       x1="21.593750"
       x2="21.593750"
       xlink:href="#linearGradient6506"
       y1="47.917328"
       y2="46.774261" />
    <linearGradient
       id="linearGradient6688">
      <stop
         id="stop6690"
         offset="0"
         style="stop-color:#0fff00;stop-opacity:1;" />
      <stop
         id="stop6692"
         offset="1.0000000"
         style="stop-color:#a3ff87;stop-opacity:1.0000000;" />
    </linearGradient>
    <linearGradient
       gradientUnits="userSpaceOnUse"
       id="linearGradient31712"
       inkscape:collect="always"
       x1="18.390625"
       x2="18.390625"
       xlink:href="#linearGradient6688"
       y1="43.400002"
       y2="44.593750" />
    <linearGradient
       gradientUnits="userSpaceOnUse"
       id="linearGradient31552"
       inkscape:collect="always"
       x1="17.728125"
       x2="19.031250"
       xlink:href="#linearGradient5756"
       y1="43.337502"
       y2="44.656250" />
    <linearGradient
       gradientTransform="matrix(0.500000,0.000000,0.000000,1.000000,-1.200000,-6.400000)"
       gradientUnits="userSpaceOnUse"
       id="linearGradient31662"
       inkscape:collect="always"
       x1="29.600000"
       x2="29.600000"
       xlink:href="#linearGradient5742"
       y1="39.991302"
       y2="41.599998" />
    <linearGradient
       gradientTransform="matrix(0.388435,0.000000,0.000000,0.618097,7.606900,5.026330)"
       gradientUnits="userSpaceOnUse"
       id="linearGradient31649"
       inkscape:collect="always"
       x1="21.593750"
       x2="21.593750"
       xlink:href="#linearGradient6506"
       y1="47.917328"
       y2="46.774261" />
    <linearGradient
       gradientUnits="userSpaceOnUse"
       id="linearGradient31710"
       inkscape:collect="always"
       x1="18.390625"
       x2="18.390625"
       xlink:href="#linearGradient9163"
       y1="43.400002"
       y2="44.593750" />
    <linearGradient
       gradientUnits="userSpaceOnUse"
       id="linearGradient31570"
       inkscape:collect="always"
       x1="17.728125"
       x2="19.031250"
       xlink:href="#linearGradient5756"
       y1="43.337502"
       y2="44.656250" />
    <linearGradient
       gradientTransform="matrix(0.500000,0.000000,0.000000,1.000000,1.200000,-6.400000)"
       gradientUnits="userSpaceOnUse"
       id="linearGradient31654"
       inkscape:collect="always"
       x1="29.600000"
       x2="29.600000"
       xlink:href="#linearGradient5742"
       y1="39.991302"
       y2="41.599998" />
    <linearGradient
       gradientUnits="userSpaceOnUse"
       id="linearGradient9199"
       inkscape:collect="always"
       x1="23.402565"
       x2="23.389874"
       xlink:href="#linearGradient6506"
       y1="44.066776"
       y2="42.883698" />
    <linearGradient
       id="linearGradient9163">
      <stop
         id="stop9165"
         offset="0.0000000"
         style="stop-color:#000000;stop-opacity:1.0000000;" />
      <stop
         id="stop9167"
         offset="1.0000000"
         style="stop-color:#8c8c8c;stop-opacity:1.0000000;" />
    </linearGradient>
    <linearGradient
       gradientUnits="userSpaceOnUse"
       id="linearGradient9197"
       inkscape:collect="always"
       x1="23.213980"
       x2="23.201290"
       xlink:href="#linearGradient9163"
       y1="42.754631"
       y2="43.892632" />
    <linearGradient
       gradientUnits="userSpaceOnUse"
       id="linearGradient9195"
       inkscape:collect="always"
       x1="23.349695"
       x2="23.440580"
       xlink:href="#linearGradient5756"
       y1="42.767944"
       y2="43.710873" />
    <linearGradient
       gradientUnits="userSpaceOnUse"
       id="linearGradient9193"
       inkscape:collect="always"
       x1="23.193102"
       x2="23.200001"
       xlink:href="#linearGradient5742"
       y1="42.429230"
       y2="44.000000" />
    <linearGradient
       id="linearGradient6506">
      <stop
         id="stop6508"
         offset="0.0000000"
         style="stop-color:#ffffff;stop-opacity:0.0000000;" />
      <stop
         id="stop6510"
         offset="1.0000000"
         style="stop-color:#ffffff;stop-opacity:0.87450981;" />
    </linearGradient>
    <linearGradient
       gradientUnits="userSpaceOnUse"
       id="linearGradient7498"
       inkscape:collect="always"
       x1="23.402565"
       x2="23.389874"
       xlink:href="#linearGradient6506"
       y1="44.066776"
       y2="42.883698" />
    <linearGradient
       id="linearGradient7464">
      <stop
         id="stop7466"
         offset="0.0000000"
         style="stop-color:#00039a;stop-opacity:1.0000000;" />
      <stop
         id="stop7468"
         offset="1.0000000"
         style="stop-color:#afa5ff;stop-opacity:1.0000000;" />
    </linearGradient>
    <linearGradient
       gradientUnits="userSpaceOnUse"
       id="linearGradient7496"
       inkscape:collect="always"
       x1="23.213980"
       x2="23.201290"
       xlink:href="#linearGradient7464"
       y1="42.754631"
       y2="43.892632" />
    <linearGradient
       id="linearGradient5756">
      <stop
         id="stop5758"
         offset="0.0000000"
         style="stop-color:#828282;stop-opacity:1.0000000;" />
      <stop
         id="stop5760"
         offset="1.0000000"
         style="stop-color:#929292;stop-opacity:0.35294119;" />
    </linearGradient>
    <linearGradient
       gradientUnits="userSpaceOnUse"
       id="linearGradient9321"
       inkscape:collect="always"
       x1="22.935030"
       x2="23.662106"
       xlink:href="#linearGradient5756"
       y1="42.699776"
       y2="43.892632" />
    <linearGradient
       id="linearGradient5742">
      <stop
         id="stop5744"
         offset="0.0000000"
         style="stop-color:#adadad;stop-opacity:1.0000000;" />
      <stop
         id="stop5746"
         offset="1.0000000"
         style="stop-color:#f0f0f0;stop-opacity:1.0000000;" />
    </linearGradient>
    <linearGradient
       gradientUnits="userSpaceOnUse"
       id="linearGradient7492"
       inkscape:collect="always"
       x1="23.193102"
       x2="23.200001"
       xlink:href="#linearGradient5742"
       y1="42.429230"
       y2="44.000000" />
    <linearGradient
       gradientUnits="userSpaceOnUse"
       id="linearGradient9527"
       inkscape:collect="always"
       x1="23.193102"
       x2="23.200001"
       xlink:href="#linearGradient5742"
       y1="42.429230"
       y2="44.000000" />
    <linearGradient
       gradientUnits="userSpaceOnUse"
       id="linearGradient9529"
       inkscape:collect="always"
       x1="22.935030"
       x2="23.662106"
       xlink:href="#linearGradient5756"
       y1="42.699776"
       y2="43.892632" />
    <linearGradient
       gradientUnits="userSpaceOnUse"
       id="linearGradient9531"
       inkscape:collect="always"
       x1="23.213980"
       x2="23.201290"
       xlink:href="#linearGradient7464"
       y1="42.754631"
       y2="43.892632" />
    <linearGradient
       gradientUnits="userSpaceOnUse"
       id="linearGradient9533"
       inkscape:collect="always"
       x1="23.402565"
       x2="23.389874"
       xlink:href="#linearGradient6506"
       y1="44.066776"
       y2="42.883698" />
    <linearGradient
       gradientTransform="matrix(24.16238,0.000000,0.000000,18.68556,-538.2464,-790.0391)"
       gradientUnits="userSpaceOnUse"
       id="linearGradient1336"
       inkscape:collect="always"
       x1="23.402565"
       x2="23.389874"
       xlink:href="#linearGradient6506"
       y1="44.066776"
       y2="42.883698" />
    <linearGradient
       gradientTransform="matrix(30.28350,0.000000,0.000000,30.28350,-680.9062,-1286.161)"
       gradientUnits="userSpaceOnUse"
       id="linearGradient1339"
       inkscape:collect="always"
       x1="23.213980"
       x2="23.201290"
       xlink:href="#linearGradient9163"
       y1="42.754631"
       y2="43.892632" />
    <linearGradient
       gradientTransform="matrix(33.82731,0.000000,0.000000,33.82731,-763.5122,-1439.594)"
       gradientUnits="userSpaceOnUse"
       id="linearGradient1342"
       inkscape:collect="always"
       x1="23.349695"
       x2="23.440580"
       xlink:href="#linearGradient5756"
       y1="42.767944"
       y2="43.710873" />
    <linearGradient
       gradientTransform="matrix(31.25000,0.000000,0.000000,31.25000,-700.0000,-1325.000)"
       gradientUnits="userSpaceOnUse"
       id="linearGradient1345"
       inkscape:collect="always"
       x1="23.193102"
       x2="23.200001"
       xlink:href="#linearGradient5742"
       y1="42.429230"
       y2="44.000000" />
  </defs>
  <sodipodi:namedview
     bordercolor="#666666"
     borderopacity="1.0"
     id="base"
     inkscape:current-layer="g31748"
     inkscape:cx="25"
     inkscape:cy="25"
     inkscape:document-units="px"
     inkscape:pageopacity="0.0"
     inkscape:pageshadow="2"
     inkscape:window-height="693"
     inkscape:window-width="1024"
     inkscape:window-x="0"
     inkscape:window-y="25"
     inkscape:zoom="10.78"
     pagecolor="#ffffff"
     showgrid="false"
     inkscape:window-maximized="0" />
  <g
     id="layer1"
     inkscape:groupmode="layer"
     inkscape:label="Calque 1">
    <g
       id="g31748"
       style="overflow:visible"
       transform="matrix(31.25000,0.000000,0.000000,31.25000,-400.0000,-1050.000)">
      <path
         d="M 12.800000,33.600000 L 14.400000,33.600000 L 14.400000,35.200000 L 12.800000,35.200000 L 12.800000,33.600000 z "
         id="path31542"
         style="fill:url(#linearGradient31662);fill-opacity:1.0000000;stroke:none;stroke-width:0.80000001;stroke-linecap:round;stroke-linejoin:round;stroke-miterlimit:4.0000000;stroke-opacity:1.0000000" />
      <path
         d="M 17.750000,43.343750 L 17.750000,44.656250 L 19.031250,44.656250 L 19.031250,43.343750 L 17.750000,43.343750 z "
         id="path31544"
         inkscape:original="M 17.593750 43.187500 L 17.593750 44.812500 L 19.187500 44.812500 L 19.187500 43.187500 L 17.593750 43.187500 z "
         inkscape:radius="-0.16249999"
         sodipodi:type="inkscape:offset"
         style="fill:url(#linearGradient31552);fill-opacity:1.0000000;stroke:none;stroke-width:0.80000001;stroke-linecap:round;stroke-linejoin:round;stroke-miterlimit:4.0000000;stroke-opacity:1.0000000;overflow:visible"
         transform="translate(-4.790625,-9.600000)" />
      <path
         d="M 17.812500,43.406250 L 17.812500,44.593750 L 18.968750,44.593750 L 18.968750,43.406250 L 17.812500,43.406250 z "
         id="path31546"
         inkscape:original="M 17.593750 43.187500 L 17.593750 44.812500 L 19.187500 44.812500 L 19.187500 43.187500 L 17.593750 43.187500 z "
         inkscape:radius="-0.20625000"
         sodipodi:type="inkscape:offset"
         style="fill:url(#linearGradient31712);fill-opacity:1.0000000;stroke:none;stroke-width:0.80000001;stroke-linecap:round;stroke-linejoin:round;stroke-miterlimit:4.0000000;stroke-opacity:1.0000000;overflow:visible"
         transform="translate(-4.790625,-9.600000)" />
      <path
         d="M 13.291195,33.845120 C 13.030356,33.845967 13.060563,33.793294 13.060563,34.192800 C 13.060563,34.388016 13.168517,34.559796 13.291195,34.559795 L 13.910263,34.559795 C 14.032945,34.559795 14.128757,34.394678 14.128757,34.192800 C 14.128757,33.789990 14.154584,33.841761 13.910263,33.845120 L 13.291195,33.845120 z "
         id="path31548"
         sodipodi:nodetypes="csccscc"
         style="fill:url(#linearGradient31657);fill-opacity:1.0000000;stroke:none;stroke-width:0.80000001;stroke-linecap:round;stroke-linejoin:round;stroke-miterlimit:4.0000000;stroke-opacity:1.0000000;overflow:visible" />
    </g>
  </g>
</svg>
